<?xml version="1.0" encoding="UTF-8" standalone="no"?>
<!-- Created with Inkscape (http://www.inkscape.org/) -->

<svg
   width="64"
   height="64"
   viewBox="0 0 16.933333 16.933333"
   version="1.1"
   id="svg5"
   inkscape:version="1.2.2 (732a01da63, 2022-12-09, custom)"
   sodipodi:docname="headphones_simple_2d_gradient_horizontal_2ec27eff_1c71d8ff.svg"
   xmlns:inkscape="http://www.inkscape.org/namespaces/inkscape"
   xmlns:sodipodi="http://sodipodi.sourceforge.net/DTD/sodipodi-0.dtd"
   xmlns:xlink="http://www.w3.org/1999/xlink"
   xmlns="http://www.w3.org/2000/svg"
   xmlns:svg="http://www.w3.org/2000/svg">
  <sodipodi:namedview
     id="namedview7"
     pagecolor="#ffffff"
     bordercolor="#000000"
     borderopacity="0.25"
     inkscape:showpageshadow="2"
     inkscape:pageopacity="0.0"
     inkscape:pagecheckerboard="0"
     inkscape:deskcolor="#d1d1d1"
     inkscape:document-units="mm"
     showgrid="false"
     showguides="false"
     inkscape:zoom="6.9027389"
     inkscape:cx="10.213337"
     inkscape:cy="33.102802"
     inkscape:window-width="1920"
     inkscape:window-height="1016"
     inkscape:window-x="0"
     inkscape:window-y="0"
     inkscape:window-maximized="1"
     inkscape:current-layer="layer1">
    <sodipodi:guide
       position="0.80410045,14.935368"
       orientation="1,0"
       id="guide211"
       inkscape:locked="false" />
    <sodipodi:guide
       position="15.994168,12.696361"
       orientation="1,0"
       id="guide213"
       inkscape:locked="false" />
    <sodipodi:guide
       position="0.66214185,16.143856"
       orientation="0,-1"
       id="guide215"
       inkscape:locked="false" />
    <sodipodi:guide
       position="-2.1786218,0.89221056"
       orientation="0,-1"
       id="guide217"
       inkscape:locked="false" />
    <sodipodi:guide
       position="8.3786411,16.398526"
       orientation="1,0"
       id="guide219"
       inkscape:locked="false" />
    <sodipodi:guide
       position="7.5312666,8.5348953"
       orientation="0,-1"
       id="guide221"
       inkscape:locked="false" />
    <sodipodi:guide
       position="4.558592,8.300022"
       orientation="1,0"
       id="guide277"
       inkscape:locked="false" />
    <sodipodi:guide
       position="12.249624,7.0521393"
       orientation="1,0"
       id="guide279"
       inkscape:locked="false" />
    <inkscape:grid
       type="xygrid"
       id="grid281" />
    <sodipodi:guide
       position="5.1952668,12.884081"
       orientation="1,0"
       id="guide287"
       inkscape:locked="false" />
    <sodipodi:guide
       position="11.587482,12.196472"
       orientation="1,0"
       id="guide289"
       inkscape:locked="false" />
  </sodipodi:namedview>
  <defs
     id="defs2">
    <linearGradient
       inkscape:collect="always"
       id="linearGradient8332">
      <stop
         style="stop-color:#2ec27e;stop-opacity:1;"
         offset="0"
         id="stop8328" />
      <stop
         style="stop-color:#1c71d8;stop-opacity:1;"
         offset="1"
         id="stop8330" />
    </linearGradient>
    <linearGradient
       inkscape:collect="always"
       id="linearGradient8324">
      <stop
         style="stop-color:#2ec27e;stop-opacity:1;"
         offset="0"
         id="stop8320" />
      <stop
         style="stop-color:#1c71d8;stop-opacity:1;"
         offset="1"
         id="stop8322" />
    </linearGradient>
    <linearGradient
       inkscape:collect="always"
       id="linearGradient6740">
      <stop
         style="stop-color:#2ec27e;stop-opacity:1;"
         offset="0"
         id="stop6736" />
      <stop
         style="stop-color:#1c71d8;stop-opacity:1;"
         offset="1"
         id="stop6738" />
    </linearGradient>
    <linearGradient
       inkscape:collect="always"
       xlink:href="#linearGradient6740"
       id="linearGradient6742"
       x1="8.3887177"
       y1="15.343707"
       x2="8.3563957"
       y2="1.8926531"
       gradientUnits="userSpaceOnUse" />
    <linearGradient
       inkscape:collect="always"
       xlink:href="#linearGradient8324"
       id="linearGradient8326"
       x1="5.7863851"
       y1="15.072733"
       x2="5.7863321"
       y2="7.3908224"
       gradientUnits="userSpaceOnUse" />
    <linearGradient
       inkscape:collect="always"
       xlink:href="#linearGradient8332"
       id="linearGradient8334"
       x1="11.018771"
       y1="14.94082"
       x2="11.112448"
       y2="7.5282688"
       gradientUnits="userSpaceOnUse" />
  </defs>
  <g
     inkscape:label="Layer 1"
     inkscape:groupmode="layer"
     id="layer1">
    <path
       id="path3659"
       style="fill:url(#linearGradient6742);stroke-width:84.596;stroke-linecap:round;stroke-linejoin:round;fill-opacity:1"
       d="M 8.4294596 3.2540649 C 5.8863518 3.3132079 4.4660006 4.7313287 3.8359416 6.078182 C 3.34509 7.1274566 3.2589866 8.1521163 3.2447632 8.5550334 C 0.85641575 9.0673578 0.85627848 10.826729 0.85627848 10.826729 C 0.62202363 14.448816 4.5504034 13.846598 4.5511434 13.846183 L 4.5402913 8.7110962 L 4.5408081 8.7110962 C 4.5408081 8.7110962 4.5288286 7.6654317 5.0136475 6.6290527 C 5.4937765 5.6026995 6.3386843 4.6211809 8.3984538 4.5547607 L 8.3984538 4.5583781 C 10.50202 4.607299 11.356013 5.6006513 11.839587 6.6388713 C 12.195997 7.4040734 12.283189 8.1728171 12.304159 8.525061 L 12.29279 13.833781 C 12.29353 13.834196 16.221909 14.43693 15.987655 10.814844 C 15.987655 10.814844 15.987515 9.0588785 13.605888 8.5446981 C 13.588933 8.1239536 13.496843 7.1185284 13.01781 6.0900675 C 12.389647 4.7414195 10.971955 3.3194461 8.4294596 3.2597493 L 8.4294596 3.2540649 z " />
    <g
       id="path1173"
       style="fill:url(#linearGradient8326);fill-opacity:1">
      <path
         style="color:#000000;fill:url(#linearGradient8326);stroke-width:1.34374;stroke-linecap:round;stroke-linejoin:round;-inkscape-stroke:none;fill-opacity:1"
         d="M 5.7204933,8.836462 V 13.47095"
         id="path4448" />
      <path
         style="color:#000000;fill:url(#linearGradient8326);stroke-linecap:round;stroke-linejoin:round;-inkscape-stroke:none;fill-opacity:1"
         d="m 5.7207031,8.1640625 a 0.67186999,0.67186999 0 0 0 -0.671875,0.671875 v 4.6347655 a 0.67186999,0.67186999 0 0 0 0.671875,0.671875 0.67186999,0.67186999 0 0 0 0.671875,-0.671875 V 8.8359375 a 0.67186999,0.67186999 0 0 0 -0.671875,-0.671875 z"
         id="path4450" />
    </g>
    <g
       id="path1173-3"
       style="fill:url(#linearGradient8334);fill-opacity:1">
      <path
         style="color:#000000;fill:url(#linearGradient8334);stroke-width:1.34374;stroke-linecap:round;stroke-linejoin:round;-inkscape-stroke:none;fill-opacity:1"
         d="M 11.074691,8.8790502 V 13.513538"
         id="path4454" />
      <path
         style="color:#000000;fill:url(#linearGradient8334);stroke-linecap:round;stroke-linejoin:round;-inkscape-stroke:none;fill-opacity:1"
         d="m 11.074219,8.2070313 a 0.67186999,0.67186999 0 0 0 -0.671875,0.671875 v 4.6347657 a 0.67186999,0.67186999 0 0 0 0.671875,0.671875 0.67186999,0.67186999 0 0 0 0.671875,-0.671875 V 8.8789063 a 0.67186999,0.67186999 0 0 0 -0.671875,-0.671875 z"
         id="path4456" />
    </g>
  </g>
</svg>
