<?xml version="1.0" encoding="UTF-8" standalone="no"?>
<!-- Created with Inkscape (http://www.inkscape.org/) -->

<svg
   width="64"
   height="64"
   viewBox="0 0 16.933333 16.933333"
   version="1.1"
   id="svg5"
   inkscape:version="1.2.2 (732a01da63, 2022-12-09, custom)"
   sodipodi:docname="wave_simple_2d_color_e01b24.svg"
   xmlns:inkscape="http://www.inkscape.org/namespaces/inkscape"
   xmlns:sodipodi="http://sodipodi.sourceforge.net/DTD/sodipodi-0.dtd"
   xmlns="http://www.w3.org/2000/svg"
   xmlns:svg="http://www.w3.org/2000/svg">
  <sodipodi:namedview
     id="namedview7"
     pagecolor="#ffffff"
     bordercolor="#000000"
     borderopacity="0.25"
     inkscape:showpageshadow="2"
     inkscape:pageopacity="0.0"
     inkscape:pagecheckerboard="0"
     inkscape:deskcolor="#d1d1d1"
     inkscape:document-units="mm"
     showgrid="false"
     showguides="true"
     inkscape:zoom="7.672571"
     inkscape:cx="60.279663"
     inkscape:cy="18.963656"
     inkscape:window-width="1920"
     inkscape:window-height="1016"
     inkscape:window-x="0"
     inkscape:window-y="0"
     inkscape:window-maximized="1"
     inkscape:current-layer="layer1">
    <sodipodi:guide
       position="0.80410045,14.935368"
       orientation="1,0"
       id="guide211"
       inkscape:locked="false" />
    <sodipodi:guide
       position="15.994168,12.696361"
       orientation="1,0"
       id="guide213"
       inkscape:locked="false" />
    <sodipodi:guide
       position="0.66214185,16.143856"
       orientation="0,-1"
       id="guide215"
       inkscape:locked="false" />
    <sodipodi:guide
       position="-2.1786218,0.89221056"
       orientation="0,-1"
       id="guide217"
       inkscape:locked="false" />
    <sodipodi:guide
       position="8.3786411,16.398526"
       orientation="1,0"
       id="guide219"
       inkscape:locked="false" />
    <sodipodi:guide
       position="7.5312666,8.5348953"
       orientation="0,-1"
       id="guide221"
       inkscape:locked="false" />
    <inkscape:grid
       type="xygrid"
       id="grid281" />
  </sodipodi:namedview>
  <defs
     id="defs2" />
  <g
     inkscape:label="Layer 1"
     inkscape:groupmode="layer"
     id="layer1">
    <path
       style="color:#000000;fill:#e01b24;stroke-linecap:square;stroke-linejoin:round;-inkscape-stroke:none;fill-opacity:1"
       d="M 8.2093872,3.3868568 C 7.9201179,3.4014514 7.6797903,3.6149857 7.6312622,3.9005287 L 6.5896238,8.3832199 5.4652466,5.8184974 C 5.2722379,5.2190119 4.4111184,5.2585387 4.2738403,5.8731849 L 3.5140747,9.3087318 2.8472269,8.968579 0.77639726,7.9933933 0.70743413,7.9630287 1.111731,8.4298256 3.3851685,11.045059 c 0.3329757,0.380987 0.9576608,0.222247 1.0683593,-0.271484 L 4.9043575,8.5658424 6.2699341,12.322403 c 0.199415,0.61494 1.0897886,0.549579 1.1972656,-0.08789 l 0.9452937,-4.602177 1.7851746,5.742801 c 0.173993,0.626066 1.07236,0.593929 1.201172,-0.04297 l 1.223211,-5.7463707 2.137443,1.1720926 1.211441,0.7498154 -0.01546,0.030221 L 14.85564,7.9930173 13.254069,5.788473 C 12.49844,4.9515186 11.8848,5.5043428 11.642981,5.8731849 L 10.711606,8.5693454 8.8363404,3.8380287 C 8.758655,3.5594749 8.4981911,3.3720382 8.2093872,3.3868568 Z"
       id="path10982"
       sodipodi:nodetypes="cccccccccccccccccccccccccccc" />
  </g>
</svg>
